<?xml version="1.0" encoding="utf-8"?>
<!-- Generator: Adobe Illustrator 22.0.0, SVG Export Plug-In . SVG Version: 6.00 Build 0)  -->
<svg version="1.1" id="Layer_1" xmlns="http://www.w3.org/2000/svg" xmlns:xlink="http://www.w3.org/1999/xlink" x="0px" y="0px"
	 viewBox="0 0 1722 1913.4" style="enable-background:new 0 0 1722 1913.4;" xml:space="preserve">
<style type="text/css">
	.st0{opacity:0.3;enable-background:new    ;}
</style>
<g>
	<rect x="765.3" y="861" class="st0" width="191.3" height="191.3"/>
	<rect x="1148" y="861" class="st0" width="191.3" height="191.3"/>
	<rect x="382.7" y="861" class="st0" width="191.3" height="191.3"/>
	<path class="st0" d="M1530.7,191.3H1435V0h-191.3v191.3H478.3V0H287v191.3h-95.7C86.1,191.4,0.9,276.7,1,381.9c0,0.3,0,0.5,0,0.8
		L0,1722c0,105.7,85.7,191.3,191.3,191.3h1339.4c105.5-0.3,191-85.8,191.3-191.3V382.7C1721.7,277.1,1636.2,191.7,1530.7,191.3z
		 M1530.7,1722H191.3V669.7h1339.4V1722z"/>
</g>
</svg>
