<?xml version="1.0" encoding="utf-8"?>
<!-- Generator: Adobe Illustrator 22.0.0, SVG Export Plug-In . SVG Version: 6.00 Build 0)  -->
<svg version="1.1" id="Layer_1" xmlns="http://www.w3.org/2000/svg" xmlns:xlink="http://www.w3.org/1999/xlink" x="0px" y="0px"
	 viewBox="0 0 2958.2 2958.2" style="enable-background:new 0 0 2958.2 2958.2;" xml:space="preserve">
<style type="text/css">
	.st0{opacity:0.3;enable-background:new    ;}
</style>
<g>
	<path class="st0" d="M941.2,573.9c0,0,231,911,305.1,1039.7h-0.1c48.1,83.2,136.9,134.5,233,134.5c47.2,0,93.6-12.5,134.5-36.2
		c128.6-74.3,172.7-238.7,98.4-367.3C1637.8,1215.8,941.2,573.9,941.2,573.9z"/>
	<path class="st0" d="M2525,433.1C2248.2,154.8,1871.6-1.1,1479.1,0C662.5,0.8,0.8,662.5,0,1479.1
		c0.9,816.5,662.6,1478.2,1479.1,1479.1c392.5,1,769.1-155.1,1045.8-433.4c278.2-276.7,434.2-653.3,433.3-1045.7
		C2959.3,1086.6,2803.3,709.9,2525,433.1z M1479.1,2689.2c-668-0.8-1209.4-542.1-1210.2-1210.2C269.6,811,811,269.7,1479.1,268.9
		c668,0.7,1209.4,542.1,1210.2,1210.2C2688.4,2147.1,2147.1,2688.4,1479.1,2689.2z"/>
</g>
</svg>
